Sample,Group
A 2_THYMOMA_3,Type A Thyoma
A 1_THYMOMA_1,Type A Thyoma
A 4_THYMOMA_7,Type A Thyoma
A 3_THYMOMA_5,Type A Thyoma
A 5_THYMOMA_97,Type A Thyoma
B1 2_THYMOMA_13,Type B Thyoma
B1 3_THYMOMA_15,Type B Thyoma
B1 4_THYMOMA_17,Type B Thyoma
B2 7_THYMOMA_33,Type B Thyoma
B3 1_THYMOMA_35,Type B Thyoma
B2 2_THYMOMA_21,Type B Thyoma
B2 3_THYMOMA_23,Type B Thyoma
B1 1_THYMOMA_9,Type B Thyoma
B3 2_THYMOMA_39,Type B Thyoma
B3 3_THYMOMA_41,Type B Thyoma
B3 5_THYMOMA_47,Type B Thyoma
B2 4_THYMOMA_25,Type B Thyoma
B2 6_THYMOMA_31,Type B Thyoma
B2 8_THYMOMA_29,Type B Thyoma
B2 1_THYMOMA_19,Type B Thyoma
B2 5_THYMOMA_27,Type B Thyoma
B3 4_THYMOMA_43,Type B Thyoma
AB 5_THYMOMA_75,Type AB Thymoma
AB 4_THYMOMA_73,Type AB Thymoma
AB 2_THYMOMA_67,Type AB Thymoma
AB 3_THYMOMA_71,Type AB Thymoma
AB 6_THYMOMA_77,Type AB Thymoma
AB 8_THYMOMA_69,Type AB Thymoma
AB 1_THYMOMA_65,Type AB Thymoma
AB 7_THYMOMA_79,Type AB Thymoma
squamous 4_THYMOMA_55,Thymic Carcinoma (TSCC)
squamous 3_THYMOMA_53,Thymic Carcinoma (TSCC)
squamous 2_THYMOMA_51,Thymic Carcinoma (TSCC)
squamous 7_THYMOMA_61,Thymic Carcinoma (TSCC)
squamous 1_THYMOMA_49,Thymic Carcinoma (TSCC)
squamous 5_THYMOMA_57,Thymic Carcinoma (TSCC)
squamous 8_THYMOMA_91,Thymic Carcinoma (TSCC)
squamous 9_THYMOMA_93,Thymic Carcinoma (TSCC)
squamous 10_THYMOMA_95,Thymic Carcinoma (TSCC)
squamous 6_THYMOMA_59,Thymic Carcinoma (TSCC)
para 1_THYMOMA_2,Tumor Adjacent
para 2_THYMOMA_4,Tumor Adjacent
para 27_THYMOMA_26,Tumor Adjacent
para 6_THYMOMA_14,Tumor Adjacent
para 10_THYMOMA_22,Tumor Adjacent
para 24_THYMOMA_74,Tumor Adjacent
para 31_THYMOMA_40,Tumor Adjacent
para 14_THYMOMA_50,Tumor Adjacent
para 26_THYMOMA_78,Tumor Adjacent
para 18_THYMOMA_58,Tumor Adjacent
para 32_THYMOMA_44,Tumor Adjacent
para 37_THYMOMA_98,Tumor Adjacent
para 28_THYMOMA_30,Tumor Adjacent
para 34_THYMOMA_92,Tumor Adjacent
para 5_THYMOMA_10,Tumor Adjacent
para 4_THYMOMA_8,Tumor Adjacent
para 12_THYMOMA_36,Tumor Adjacent
para 8_THYMOMA_18,Tumor Adjacent
para 9_THYMOMA_20,Tumor Adjacent
para 25_THYMOMA_76,Tumor Adjacent
para 7_THYMOMA_16,Tumor Adjacent
para 3_THYMOMA_6,Tumor Adjacent
para 13_THYMOMA_48,Tumor Adjacent
para 20_THYMOMA_62,Tumor Adjacent
para 11_THYMOMA_24,Tumor Adjacent
para 29_THYMOMA_32,Tumor Adjacent
para 30_THYMOMA_34,Tumor Adjacent
para 15_THYMOMA_52,Tumor Adjacent
para 17_THYMOMA_56,Tumor Adjacent
para 23_THYMOMA_72,Tumor Adjacent
para 21_THYMOMA_68,Tumor Adjacent
para 33_THYMOMA_66,Tumor Adjacent
para 16_THYMOMA_54,Tumor Adjacent
para 19_THYMOMA_60,Tumor Adjacent
para 35_THYMOMA_94,Tumor Adjacent
para 36_THYMOMA_96,Tumor Adjacent
para 22_THYMOMA_70,Tumor Adjacent
para 38_THYMOMA_28,Tumor Adjacent
para 39_THYMOMA_42,Tumor Adjacent
para 40_THYMOMA_80,Tumor Adjacent
Normal 1_THYMOMA_82,Normal Thymus
Normal 9_THYMOMA_89,Normal Thymus
Normal 2_THYMOMA_85,Normal Thymus
Normal 7_THYMOMA_86,Normal Thymus
Normal 4_THYMOMA_90,Normal Thymus
Normal 5_THYMOMA_83,Normal Thymus
Normal 6_THYMOMA_84,Normal Thymus
Normal 8_THYMOMA_87,Normal Thymus
Normal 10_THYMOMA_81,Normal Thymus
Normal 3_THYMOMA_88,Normal Thymus
